200.109.184.248 - - [25/Sep/2014:15:03:01 +0000] "GET /reportes/becarios HTTP/1.1" 200 3717 "http://54.68.201.26/admin" "Mozilla/5.0 (X11; Ubuntu; Linux x86_64; rv:30.0) Gecko/20100101 Firefox/30.0"
200.109.184.248 - - [25/Sep/2014:15:03:01 +0000] "GET /jquery/themes/base/jquery.ui.all.css HTTP/1.1" 200 536 "http://54.68.201.26/reportes/becarios" "Mozilla/5.0 (X11; Ubuntu; Linux x86_64; rv:30.0) Gecko/20100101 Firefox/30.0"
200.109.184.248 - - [25/Sep/2014:15:03:01 +0000] "GET /css/bootstrap.min.css HTTP/1.1" 200 21184 "http://54.68.201.26/reportes/becarios" "Mozilla/5.0 (X11; Ubuntu; Linux x86_64; rv:30.0) Gecko/20100101 Firefox/30.0"
200.109.184.248 - - [25/Sep/2014:15:03:01 +0000] "GET /css/estilos.css HTTP/1.1" 200 1170 "http://54.68.201.26/reportes/becarios" "Mozilla/5.0 (X11; Ubuntu; Linux x86_64; rv:30.0) Gecko/20100101 Firefox/30.0"
200.109.184.248 - - [25/Sep/2014:15:03:01 +0000] "GET /css/chosen/chosen/chosen.css HTTP/1.1" 200 2873 "http://54.68.201.26/reportes/becarios" "Mozilla/5.0 (X11; Ubuntu; Linux x86_64; rv:30.0) Gecko/20100101 Firefox/30.0"
200.109.184.248 - - [25/Sep/2014:15:03:01 +0000] "GET /css/themes/flexigrid/css/flexigrid.css HTTP/1.1" 200 6339 "http://54.68.201.26/reportes/becarios" "Mozilla/5.0 (X11; Ubuntu; Linux x86_64; rv:30.0) Gecko/20100101 Firefox/30.0"
200.109.184.248 - - [25/Sep/2014:15:03:01 +0000] "GET /img/sibe_header.jpg HTTP/1.1" 304 181 "http://54.68.201.26/reportes/becarios" "Mozilla/5.0 (X11; Ubuntu; Linux x86_64; rv:30.0) Gecko/20100101 Firefox/30.0"
200.109.184.248 - - [25/Sep/2014:15:03:01 +0000] "GET /jquery/themes/base/jquery.ui.base.css HTTP/1.1" 200 620 "http://54.68.201.26/jquery/themes/base/jquery.ui.all.css" "Mozilla/5.0 (X11; Ubuntu; Linux x86_64; rv:30.0) Gecko/20100101 Firefox/30.0"
200.109.184.248 - - [25/Sep/2014:15:03:01 +0000] "GET /jquery/themes/base/jquery.ui.theme.css HTTP/1.1" 200 3455 "http://54.68.201.26/jquery/themes/base/jquery.ui.all.css" "Mozilla/5.0 (X11; Ubuntu; Linux x86_64; rv:30.0) Gecko/20100101 Firefox/30.0"
200.109.184.248 - - [25/Sep/2014:15:03:02 +0000] "GET /jquery/themes/base/jquery.ui.core.css HTTP/1.1" 200 933 "http://54.68.201.26/jquery/themes/base/jquery.ui.base.css" "Mozilla/5.0 (X11; Ubuntu; Linux x86_64; rv:30.0) Gecko/20100101 Firefox/30.0"
200.109.184.248 - - [25/Sep/2014:15:03:02 +0000] "GET /jquery/themes/base/jquery.ui.accordion.css HTTP/1.1" 200 717 "http://54.68.201.26/jquery/themes/base/jquery.ui.base.css" "Mozilla/5.0 (X11; Ubuntu; Linux x86_64; rv:30.0) Gecko/20100101 Firefox/30.0"
200.109.184.248 - - [25/Sep/2014:15:03:02 +0000] "GET /jquery/themes/base/jquery.ui.autocomplete.css HTTP/1.1" 200 611 "http://54.68.201.26/jquery/themes/base/jquery.ui.base.css" "Mozilla/5.0 (X11; Ubuntu; Linux x86_64; rv:30.0) Gecko/20100101 Firefox/30.0"
200.109.184.248 - - [25/Sep/2014:15:03:02 +0000] "GET /jquery/themes/base/jquery.ui.button.css HTTP/1.1" 200 1146 "http://54.68.201.26/jquery/themes/base/jquery.ui.base.css" "Mozilla/5.0 (X11; Ubuntu; Linux x86_64; rv:30.0) Gecko/20100101 Firefox/30.0"
200.109.184.248 - - [25/Sep/2014:15:03:02 +0000] "GET /jquery/themes/base/jquery.ui.datepicker.css HTTP/1.1" 200 1389 "http://54.68.201.26/jquery/themes/base/jquery.ui.base.css" "Mozilla/5.0 (X11; Ubuntu; Linux x86_64; rv:30.0) Gecko/20100101 Firefox/30.0"
200.109.184.248 - - [25/Sep/2014:15:03:02 +0000] "GET /jquery/themes/base/jquery.ui.dialog.css HTTP/1.1" 200 882 "http://54.68.201.26/jquery/themes/base/jquery.ui.base.css" "Mozilla/5.0 (X11; Ubuntu; Linux x86_64; rv:30.0) Gecko/20100101 Firefox/30.0"
200.109.184.248 - - [25/Sep/2014:15:03:02 +0000] "GET /jquery/themes/base/jquery.ui.menu.css HTTP/1.1" 200 904 "http://54.68.201.26/jquery/themes/base/jquery.ui.base.css" "Mozilla/5.0 (X11; Ubuntu; Linux x86_64; rv:30.0) Gecko/20100101 Firefox/30.0"
200.109.184.248 - - [25/Sep/2014:15:03:02 +0000] "GET /jquery/themes/base/jquery.ui.progressbar.css HTTP/1.1" 200 586 "http://54.68.201.26/jquery/themes/base/jquery.ui.base.css" "Mozilla/5.0 (X11; Ubuntu; Linux x86_64; rv:30.0) Gecko/20100101 Firefox/30.0"
200.109.184.248 - - [25/Sep/2014:15:03:02 +0000] "GET /jquery/themes/base/jquery.ui.resizable.css HTTP/1.1" 200 749 "http://54.68.201.26/jquery/themes/base/jquery.ui.base.css" "Mozilla/5.0 (X11; Ubuntu; Linux x86_64; rv:30.0) Gecko/20100101 Firefox/30.0"
200.109.184.248 - - [25/Sep/2014:15:03:02 +0000] "GET /jquery/themes/base/jquery.ui.selectable.css HTTP/1.1" 200 570 "http://54.68.201.26/jquery/themes/base/jquery.ui.base.css" "Mozilla/5.0 (X11; Ubuntu; Linux x86_64; rv:30.0) Gecko/20100101 Firefox/30.0"
200.109.184.248 - - [25/Sep/2014:15:03:02 +0000] "GET /jquery/themes/base/jquery.ui.slider.css HTTP/1.1" 200 787 "http://54.68.201.26/jquery/themes/base/jquery.ui.base.css" "Mozilla/5.0 (X11; Ubuntu; Linux x86_64; rv:30.0) Gecko/20100101 Firefox/30.0"
200.109.184.248 - - [25/Sep/2014:15:03:02 +0000] "GET /jquery/themes/base/jquery.ui.spinner.css HTTP/1.1" 200 906 "http://54.68.201.26/jquery/themes/base/jquery.ui.base.css" "Mozilla/5.0 (X11; Ubuntu; Linux x86_64; rv:30.0) Gecko/20100101 Firefox/30.0"
200.109.184.248 - - [25/Sep/2014:15:03:02 +0000] "GET /jquery/themes/base/jquery.ui.tabs.css HTTP/1.1" 200 925 "http://54.68.201.26/jquery/themes/base/jquery.ui.base.css" "Mozilla/5.0 (X11; Ubuntu; Linux x86_64; rv:30.0) Gecko/20100101 Firefox/30.0"
200.109.184.248 - - [25/Sep/2014:15:03:02 +0000] "GET /jquery/themes/base/jquery.ui.tooltip.css HTTP/1.1" 200 655 "http://54.68.201.26/jquery/themes/base/jquery.ui.base.css" "Mozilla/5.0 (X11; Ubuntu; Linux x86_64; rv:30.0) Gecko/20100101 Firefox/30.0"
200.109.184.248 - - [25/Sep/2014:15:03:02 +0000] "GET /jquery/jqueryA.min.js HTTP/1.1" 200 32405 "http://54.68.201.26/reportes/becarios" "Mozilla/5.0 (X11; Ubuntu; Linux x86_64; rv:30.0) Gecko/20100101 Firefox/30.0"
200.109.184.248 - - [25/Sep/2014:15:03:02 +0000] "GET /css/chosen/chosen/chosen.jquery.js HTTP/1.1" 200 8045 "http://54.68.201.26/reportes/becarios" "Mozilla/5.0 (X11; Ubuntu; Linux x86_64; rv:30.0) Gecko/20100101 Firefox/30.0"
200.109.184.248 - - [25/Sep/2014:15:03:02 +0000] "GET /jquery/app.js HTTP/1.1" 200 1299 "http://54.68.201.26/reportes/becarios" "Mozilla/5.0 (X11; Ubuntu; Linux x86_64; rv:30.0) Gecko/20100101 Firefox/30.0"
200.109.184.248 - - [25/Sep/2014:15:03:02 +0000] "GET /jquery/ui/jquery.ui.core.js HTTP/1.1" 200 3667 "http://54.68.201.26/reportes/becarios" "Mozilla/5.0 (X11; Ubuntu; Linux x86_64; rv:30.0) Gecko/20100101 Firefox/30.0"
200.109.184.248 - - [25/Sep/2014:15:03:02 +0000] "GET /jquery/ui/jquery.ui.widget.js HTTP/1.1" 200 4793 "http://54.68.201.26/reportes/becarios" "Mozilla/5.0 (X11; Ubuntu; Linux x86_64; rv:30.0) Gecko/20100101 Firefox/30.0"
200.109.184.248 - - [25/Sep/2014:15:03:03 +0000] "GET /jquery/ui/jquery.ui.button.js HTTP/1.1" 200 3309 "http://54.68.201.26/reportes/becarios" "Mozilla/5.0 (X11; Ubuntu; Linux x86_64; rv:30.0) Gecko/20100101 Firefox/30.0"
200.109.184.248 - - [25/Sep/2014:15:03:03 +0000] "GET /jquery/ui/jquery.ui.position.js HTTP/1.1" 200 4572 "http://54.68.201.26/reportes/becarios" "Mozilla/5.0 (X11; Ubuntu; Linux x86_64; rv:30.0) Gecko/20100101 Firefox/30.0"
200.109.184.248 - - [25/Sep/2014:15:03:03 +0000] "GET /jquery/ui/jquery.ui.datepicker.js HTTP/1.1" 200 20147 "http://54.68.201.26/reportes/becarios" "Mozilla/5.0 (X11; Ubuntu; Linux x86_64; rv:30.0) Gecko/20100101 Firefox/30.0"
200.109.184.248 - - [25/Sep/2014:15:03:03 +0000] "GET /jquery/ui/i18n/jquery.ui.datepicker-es.js HTTP/1.1" 200 850 "http://54.68.201.26/reportes/becarios" "Mozilla/5.0 (X11; Ubuntu; Linux x86_64; rv:30.0) Gecko/20100101 Firefox/30.0"
200.109.184.248 - - [25/Sep/2014:15:03:03 +0000] "GET /jquery/ui/jquery.ui.accordion.js HTTP/1.1" 200 5382 "http://54.68.201.26/reportes/becarios" "Mozilla/5.0 (X11; Ubuntu; Linux x86_64; rv:30.0) Gecko/20100101 Firefox/30.0"
200.109.184.248 - - [25/Sep/2014:15:03:03 +0000] "GET /jquery/ui/jquery.ui.tabs.js HTTP/1.1" 200 9396 "http://54.68.201.26/reportes/becarios" "Mozilla/5.0 (X11; Ubuntu; Linux x86_64; rv:30.0) Gecko/20100101 Firefox/30.0"
200.109.184.248 - - [25/Sep/2014:15:03:03 +0000] "GET /js/bootstrap.min.js HTTP/1.1" 200 7961 "http://54.68.201.26/reportes/becarios" "Mozilla/5.0 (X11; Ubuntu; Linux x86_64; rv:30.0) Gecko/20100101 Firefox/30.0"
200.109.184.248 - - [25/Sep/2014:15:03:02 +0000] "GET /jquery/jquery-1.8.2.js HTTP/1.1" 200 79633 "http://54.68.201.26/reportes/becarios" "Mozilla/5.0 (X11; Ubuntu; Linux x86_64; rv:30.0) Gecko/20100101 Firefox/30.0"
200.109.184.248 - - [25/Sep/2014:15:03:03 +0000] "GET /css/themes/flexigrid/css/images/ui-bg_gloss.png HTTP/1.1" 304 179 "http://54.68.201.26/css/themes/flexigrid/css/flexigrid.css" "Mozilla/5.0 (X11; Ubuntu; Linux x86_64; rv:30.0) Gecko/20100101 Firefox/30.0"
200.109.184.248 - - [25/Sep/2014:15:03:04 +0000] "GET /jquery/themes/base/images/ui-bg_glass_85_dfeffc_1x400.png HTTP/1.1" 304 178 "http://54.68.201.26/jquery/themes/base/jquery.ui.theme.css" "Mozilla/5.0 (X11; Ubuntu; Linux x86_64; rv:30.0) Gecko/20100101 Firefox/30.0"
200.109.184.248 - - [25/Sep/2014:15:03:04 +0000] "GET /jquery/themes/base/images/ui-bg_inset-hard_100_fcfdfd_1x100.png HTTP/1.1" 304 178 "http://54.68.201.26/jquery/themes/base/jquery.ui.theme.css" "Mozilla/5.0 (X11; Ubuntu; Linux x86_64; rv:30.0) Gecko/20100101 Firefox/30.0"
200.109.184.248 - - [25/Sep/2014:15:03:04 +0000] "GET /jquery/themes/base/images/ui-icons_f9bd01_256x240.png HTTP/1.1" 304 180 "http://54.68.201.26/jquery/themes/base/jquery.ui.theme.css" "Mozilla/5.0 (X11; Ubuntu; Linux x86_64; rv:30.0) Gecko/20100101 Firefox/30.0"
200.109.184.248 - - [25/Sep/2014:15:03:04 +0000] "GET /jquery/themes/base/images/ui-icons_6da8d5_256x240.png HTTP/1.1" 304 180 "http://54.68.201.26/jquery/themes/base/jquery.ui.theme.css" "Mozilla/5.0 (X11; Ubuntu; Linux x86_64; rv:30.0) Gecko/20100101 Firefox/30.0"
200.109.184.248 - - [25/Sep/2014:15:03:04 +0000] "GET /jquery/themes/base/images/ui-bg_inset-hard_100_f5f8f9_1x100.png HTTP/1.1" 304 178 "http://54.68.201.26/jquery/themes/base/jquery.ui.theme.css" "Mozilla/5.0 (X11; Ubuntu; Linux x86_64; rv:30.0) Gecko/20100101 Firefox/30.0"
200.109.184.248 - - [25/Sep/2014:15:03:09 +0000] "GET /jquery/themes/base/images/ui-bg_glass_75_d0e5f5_1x400.png HTTP/1.1" 304 178 "http://54.68.201.26/jquery/themes/base/jquery.ui.theme.css" "Mozilla/5.0 (X11; Ubuntu; Linux x86_64; rv:30.0) Gecko/20100101 Firefox/30.0"
200.109.184.248 - - [25/Sep/2014:15:03:09 +0000] "GET /jquery/themes/base/images/ui-icons_217bc0_256x240.png HTTP/1.1" 304 180 "http://54.68.201.26/jquery/themes/base/jquery.ui.theme.css" "Mozilla/5.0 (X11; Ubuntu; Linux x86_64; rv:30.0) Gecko/20100101 Firefox/30.0"
200.109.184.248 - - [25/Sep/2014:15:03:10 +0000] "GET /admin HTTP/1.1" 200 2844 "http://54.68.201.26/reportes/becarios" "Mozilla/5.0 (X11; Ubuntu; Linux x86_64; rv:30.0) Gecko/20100101 Firefox/30.0"
200.109.184.248 - - [25/Sep/2014:15:03:10 +0000] "GET /assets/uploads/files/8aaf2-Becas.jpg HTTP/1.1" 404 1407 "http://54.68.201.26/admin" "Mozilla/5.0 (X11; Ubuntu; Linux x86_64; rv:30.0) Gecko/20100101 Firefox/30.0"
200.109.184.248 - - [25/Sep/2014:15:03:10 +0000] "GET /assets/uploads/files/5b565-u1.png HTTP/1.1" 304 181 "http://54.68.201.26/admin" "Mozilla/5.0 (X11; Ubuntu; Linux x86_64; rv:30.0) Gecko/20100101 Firefox/30.0"
200.109.184.248 - - [25/Sep/2014:15:03:10 +0000] "GET /assets/uploads/files/79259-petroquimica-28.jpg HTTP/1.1" 304 181 "http://54.68.201.26/admin" "Mozilla/5.0 (X11; Ubuntu; Linux x86_64; rv:30.0) Gecko/20100101 Firefox/30.0"
::1 - - [25/Sep/2014:15:03:16 +0000] "OPTIONS * HTTP/1.0" 200 125 "-" "Apache/2.4.7 (Ubuntu) PHP/5.5.9-1ubuntu4.4 (internal dummy connection)"
::1 - - [25/Sep/2014:15:03:17 +0000] "OPTIONS * HTTP/1.0" 200 125 "-" "Apache/2.4.7 (Ubuntu) PHP/5.5.9-1ubuntu4.4 (internal dummy connection)"
200.109.184.248 - - [25/Sep/2014:15:03:18 +0000] "GET /reportes/becarios HTTP/1.1" 200 3232 "http://54.68.201.26/admin" "Mozilla/5.0 (X11; Ubuntu; Linux x86_64; rv:30.0) Gecko/20100101 Firefox/30.0"
200.109.184.248 - - [25/Sep/2014:15:03:21 +0000] "POST /reportes/verReporteBecarios HTTP/1.1" 200 97441 "http://54.68.201.26/reportes/becarios" "Mozilla/5.0 (X11; Ubuntu; Linux x86_64; rv:30.0) Gecko/20100101 Firefox/30.0"
200.109.184.248 - - [25/Sep/2014:15:04:04 +0000] "GET /phpmyadmin/sql.php?db=db_sibe&token=9ec5337055726b5d54d0679a44d100e7&goto=db_structure.php&table=beca_solicitud&pos=0&ajax_request=true&ajax_page_request=true&menuHashes=58bfdc8d&_nocache=1411657424182490984 HTTP/1.1" 200 107704 "http://54.68.201.26/phpmyadmin/index.php?db=db_sibe&target=db_structure.php&token=9ec5337055726b5d54d0679a44d100e7" "Mozilla/5.0 (X11; Ubuntu; Linux x86_64; rv:30.0) Gecko/20100101 Firefox/30.0"
200.109.184.248 - - [25/Sep/2014:15:04:06 +0000] "GET /phpmyadmin/js/get_scripts.js.php?scripts[]=tbl_structure.js&scripts[]=gis_data_editor.js&scripts[]=makegrid.js&scripts[]=sql.js HTTP/1.1" 200 125117 "http://54.68.201.26/phpmyadmin/index.php?db=db_sibe&target=db_structure.php&token=9ec5337055726b5d54d0679a44d100e7" "Mozilla/5.0 (X11; Ubuntu; Linux x86_64; rv:30.0) Gecko/20100101 Firefox/30.0"
200.109.184.248 - - [25/Sep/2014:15:04:08 +0000] "GET /phpmyadmin/index.php?ajax_request=1&recent_table=1&token=9ec5337055726b5d54d0679a44d100e7 HTTP/1.1" 200 836 "http://54.68.201.26/phpmyadmin/index.php?db=db_sibe&target=db_structure.php&token=9ec5337055726b5d54d0679a44d100e7" "Mozilla/5.0 (X11; Ubuntu; Linux x86_64; rv:30.0) Gecko/20100101 Firefox/30.0"
200.109.184.248 - - [25/Sep/2014:15:31:52 +0000] "GET /admin HTTP/1.1" 200 3326 "http://54.68.201.26/reportes/becarios" "Mozilla/5.0 (X11; Ubuntu; Linux x86_64; rv:30.0) Gecko/20100101 Firefox/30.0"
200.109.184.248 - - [25/Sep/2014:15:31:52 +0000] "GET /jquery/themes/base/jquery.ui.all.css HTTP/1.1" 200 536 "http://54.68.201.26/admin" "Mozilla/5.0 (X11; Ubuntu; Linux x86_64; rv:30.0) Gecko/20100101 Firefox/30.0"
200.109.184.248 - - [25/Sep/2014:15:31:52 +0000] "GET /css/bootstrap.min.css HTTP/1.1" 200 21184 "http://54.68.201.26/admin" "Mozilla/5.0 (X11; Ubuntu; Linux x86_64; rv:30.0) Gecko/20100101 Firefox/30.0"
200.109.184.248 - - [25/Sep/2014:15:31:52 +0000] "GET /css/estilos.css HTTP/1.1" 200 1170 "http://54.68.201.26/admin" "Mozilla/5.0 (X11; Ubuntu; Linux x86_64; rv:30.0) Gecko/20100101 Firefox/30.0"
200.109.184.248 - - [25/Sep/2014:15:31:52 +0000] "GET /css/themes/flexigrid/css/flexigrid.css HTTP/1.1" 200 6339 "http://54.68.201.26/admin" "Mozilla/5.0 (X11; Ubuntu; Linux x86_64; rv:30.0) Gecko/20100101 Firefox/30.0"
200.109.184.248 - - [25/Sep/2014:15:31:52 +0000] "GET /css/chosen/chosen/chosen.css HTTP/1.1" 200 2872 "http://54.68.201.26/admin" "Mozilla/5.0 (X11; Ubuntu; Linux x86_64; rv:30.0) Gecko/20100101 Firefox/30.0"
200.109.184.248 - - [25/Sep/2014:15:31:53 +0000] "GET /img/sibe_header.jpg HTTP/1.1" 304 181 "http://54.68.201.26/admin" "Mozilla/5.0 (X11; Ubuntu; Linux x86_64; rv:30.0) Gecko/20100101 Firefox/30.0"
200.109.184.248 - - [25/Sep/2014:15:31:53 +0000] "GET /assets/uploads/files/5b565-u1.png HTTP/1.1" 304 182 "http://54.68.201.26/admin" "Mozilla/5.0 (X11; Ubuntu; Linux x86_64; rv:30.0) Gecko/20100101 Firefox/30.0"
200.109.184.248 - - [25/Sep/2014:15:31:53 +0000] "GET /assets/uploads/files/79259-petroquimica-28.jpg HTTP/1.1" 304 181 "http://54.68.201.26/admin" "Mozilla/5.0 (X11; Ubuntu; Linux x86_64; rv:30.0) Gecko/20100101 Firefox/30.0"
200.109.184.248 - - [25/Sep/2014:15:31:53 +0000] "GET /jquery/themes/base/jquery.ui.base.css HTTP/1.1" 200 620 "http://54.68.201.26/jquery/themes/base/jquery.ui.all.css" "Mozilla/5.0 (X11; Ubuntu; Linux x86_64; rv:30.0) Gecko/20100101 Firefox/30.0"
200.109.184.248 - - [25/Sep/2014:15:31:53 +0000] "GET /jquery/themes/base/jquery.ui.theme.css HTTP/1.1" 200 3455 "http://54.68.201.26/jquery/themes/base/jquery.ui.all.css" "Mozilla/5.0 (X11; Ubuntu; Linux x86_64; rv:30.0) Gecko/20100101 Firefox/30.0"
200.109.184.248 - - [25/Sep/2014:15:31:53 +0000] "GET /jquery/themes/base/jquery.ui.core.css HTTP/1.1" 200 933 "http://54.68.201.26/jquery/themes/base/jquery.ui.base.css" "Mozilla/5.0 (X11; Ubuntu; Linux x86_64; rv:30.0) Gecko/20100101 Firefox/30.0"
200.109.184.248 - - [25/Sep/2014:15:31:53 +0000] "GET /jquery/themes/base/jquery.ui.accordion.css HTTP/1.1" 200 717 "http://54.68.201.26/jquery/themes/base/jquery.ui.base.css" "Mozilla/5.0 (X11; Ubuntu; Linux x86_64; rv:30.0) Gecko/20100101 Firefox/30.0"
200.109.184.248 - - [25/Sep/2014:15:31:53 +0000] "GET /jquery/themes/base/jquery.ui.autocomplete.css HTTP/1.1" 200 611 "http://54.68.201.26/jquery/themes/base/jquery.ui.base.css" "Mozilla/5.0 (X11; Ubuntu; Linux x86_64; rv:30.0) Gecko/20100101 Firefox/30.0"
200.109.184.248 - - [25/Sep/2014:15:31:53 +0000] "GET /jquery/themes/base/jquery.ui.button.css HTTP/1.1" 200 1146 "http://54.68.201.26/jquery/themes/base/jquery.ui.base.css" "Mozilla/5.0 (X11; Ubuntu; Linux x86_64; rv:30.0) Gecko/20100101 Firefox/30.0"
200.109.184.248 - - [25/Sep/2014:15:31:53 +0000] "GET /jquery/themes/base/jquery.ui.datepicker.css HTTP/1.1" 200 1389 "http://54.68.201.26/jquery/themes/base/jquery.ui.base.css" "Mozilla/5.0 (X11; Ubuntu; Linux x86_64; rv:30.0) Gecko/20100101 Firefox/30.0"
200.109.184.248 - - [25/Sep/2014:15:31:53 +0000] "GET /jquery/themes/base/jquery.ui.dialog.css HTTP/1.1" 200 882 "http://54.68.201.26/jquery/themes/base/jquery.ui.base.css" "Mozilla/5.0 (X11; Ubuntu; Linux x86_64; rv:30.0) Gecko/20100101 Firefox/30.0"
200.109.184.248 - - [25/Sep/2014:15:31:53 +0000] "GET /jquery/themes/base/jquery.ui.menu.css HTTP/1.1" 200 904 "http://54.68.201.26/jquery/themes/base/jquery.ui.base.css" "Mozilla/5.0 (X11; Ubuntu; Linux x86_64; rv:30.0) Gecko/20100101 Firefox/30.0"
200.109.184.248 - - [25/Sep/2014:15:31:53 +0000] "GET /jquery/themes/base/jquery.ui.progressbar.css HTTP/1.1" 200 586 "http://54.68.201.26/jquery/themes/base/jquery.ui.base.css" "Mozilla/5.0 (X11; Ubuntu; Linux x86_64; rv:30.0) Gecko/20100101 Firefox/30.0"
200.109.184.248 - - [25/Sep/2014:15:31:53 +0000] "GET /jquery/themes/base/jquery.ui.resizable.css HTTP/1.1" 200 749 "http://54.68.201.26/jquery/themes/base/jquery.ui.base.css" "Mozilla/5.0 (X11; Ubuntu; Linux x86_64; rv:30.0) Gecko/20100101 Firefox/30.0"
200.109.184.248 - - [25/Sep/2014:15:31:53 +0000] "GET /jquery/themes/base/jquery.ui.selectable.css HTTP/1.1" 200 570 "http://54.68.201.26/jquery/themes/base/jquery.ui.base.css" "Mozilla/5.0 (X11; Ubuntu; Linux x86_64; rv:30.0) Gecko/20100101 Firefox/30.0"
200.109.184.248 - - [25/Sep/2014:15:31:53 +0000] "GET /jquery/themes/base/jquery.ui.slider.css HTTP/1.1" 200 787 "http://54.68.201.26/jquery/themes/base/jquery.ui.base.css" "Mozilla/5.0 (X11; Ubuntu; Linux x86_64; rv:30.0) Gecko/20100101 Firefox/30.0"
200.109.184.248 - - [25/Sep/2014:15:31:53 +0000] "GET /jquery/themes/base/jquery.ui.spinner.css HTTP/1.1" 200 906 "http://54.68.201.26/jquery/themes/base/jquery.ui.base.css" "Mozilla/5.0 (X11; Ubuntu; Linux x86_64; rv:30.0) Gecko/20100101 Firefox/30.0"
200.109.184.248 - - [25/Sep/2014:15:31:53 +0000] "GET /jquery/themes/base/jquery.ui.tabs.css HTTP/1.1" 200 925 "http://54.68.201.26/jquery/themes/base/jquery.ui.base.css" "Mozilla/5.0 (X11; Ubuntu; Linux x86_64; rv:30.0) Gecko/20100101 Firefox/30.0"
200.109.184.248 - - [25/Sep/2014:15:31:53 +0000] "GET /jquery/themes/base/jquery.ui.tooltip.css HTTP/1.1" 200 655 "http://54.68.201.26/jquery/themes/base/jquery.ui.base.css" "Mozilla/5.0 (X11; Ubuntu; Linux x86_64; rv:30.0) Gecko/20100101 Firefox/30.0"
200.109.184.248 - - [25/Sep/2014:15:31:54 +0000] "GET /jquery/jqueryA.min.js HTTP/1.1" 200 32405 "http://54.68.201.26/admin" "Mozilla/5.0 (X11; Ubuntu; Linux x86_64; rv:30.0) Gecko/20100101 Firefox/30.0"
200.109.184.248 - - [25/Sep/2014:15:31:54 +0000] "GET /css/chosen/chosen/chosen.jquery.js HTTP/1.1" 200 8045 "http://54.68.201.26/admin" "Mozilla/5.0 (X11; Ubuntu; Linux x86_64; rv:30.0) Gecko/20100101 Firefox/30.0"
200.109.184.248 - - [25/Sep/2014:15:31:54 +0000] "GET /jquery/app.js HTTP/1.1" 200 1299 "http://54.68.201.26/admin" "Mozilla/5.0 (X11; Ubuntu; Linux x86_64; rv:30.0) Gecko/20100101 Firefox/30.0"
200.109.184.248 - - [25/Sep/2014:15:31:54 +0000] "GET /jquery/ui/jquery.ui.core.js HTTP/1.1" 200 3667 "http://54.68.201.26/admin" "Mozilla/5.0 (X11; Ubuntu; Linux x86_64; rv:30.0) Gecko/20100101 Firefox/30.0"
200.109.184.248 - - [25/Sep/2014:15:31:54 +0000] "GET /jquery/ui/jquery.ui.widget.js HTTP/1.1" 200 4793 "http://54.68.201.26/admin" "Mozilla/5.0 (X11; Ubuntu; Linux x86_64; rv:30.0) Gecko/20100101 Firefox/30.0"
200.109.184.248 - - [25/Sep/2014:15:31:54 +0000] "GET /jquery/ui/jquery.ui.button.js HTTP/1.1" 200 3309 "http://54.68.201.26/admin" "Mozilla/5.0 (X11; Ubuntu; Linux x86_64; rv:30.0) Gecko/20100101 Firefox/30.0"
200.109.184.248 - - [25/Sep/2014:15:31:54 +0000] "GET /jquery/ui/jquery.ui.position.js HTTP/1.1" 200 4572 "http://54.68.201.26/admin" "Mozilla/5.0 (X11; Ubuntu; Linux x86_64; rv:30.0) Gecko/20100101 Firefox/30.0"
200.109.184.248 - - [25/Sep/2014:15:31:54 +0000] "GET /jquery/ui/jquery.ui.datepicker.js HTTP/1.1" 200 20147 "http://54.68.201.26/admin" "Mozilla/5.0 (X11; Ubuntu; Linux x86_64; rv:30.0) Gecko/20100101 Firefox/30.0"
200.109.184.248 - - [25/Sep/2014:15:31:54 +0000] "GET /jquery/ui/i18n/jquery.ui.datepicker-es.js HTTP/1.1" 200 850 "http://54.68.201.26/admin" "Mozilla/5.0 (X11; Ubuntu; Linux x86_64; rv:30.0) Gecko/20100101 Firefox/30.0"
200.109.184.248 - - [25/Sep/2014:15:31:54 +0000] "GET /jquery/ui/jquery.ui.accordion.js HTTP/1.1" 200 5382 "http://54.68.201.26/admin" "Mozilla/5.0 (X11; Ubuntu; Linux x86_64; rv:30.0) Gecko/20100101 Firefox/30.0"
200.109.184.248 - - [25/Sep/2014:15:31:55 +0000] "GET /jquery/ui/jquery.ui.tabs.js HTTP/1.1" 200 9396 "http://54.68.201.26/admin" "Mozilla/5.0 (X11; Ubuntu; Linux x86_64; rv:30.0) Gecko/20100101 Firefox/30.0"
200.109.184.248 - - [25/Sep/2014:15:31:55 +0000] "GET /js/bootstrap.min.js HTTP/1.1" 200 7961 "http://54.68.201.26/admin" "Mozilla/5.0 (X11; Ubuntu; Linux x86_64; rv:30.0) Gecko/20100101 Firefox/30.0"
200.109.184.248 - - [25/Sep/2014:15:31:54 +0000] "GET /jquery/jquery-1.8.2.js HTTP/1.1" 200 79633 "http://54.68.201.26/admin" "Mozilla/5.0 (X11; Ubuntu; Linux x86_64; rv:30.0) Gecko/20100101 Firefox/30.0"
200.109.184.248 - - [25/Sep/2014:15:31:55 +0000] "GET /assets/uploads/files/8aaf2-Becas.jpg HTTP/1.1" 404 1407 "http://54.68.201.26/admin" "Mozilla/5.0 (X11; Ubuntu; Linux x86_64; rv:30.0) Gecko/20100101 Firefox/30.0"
200.109.184.248 - - [25/Sep/2014:15:31:56 +0000] "GET /jquery/themes/base/images/ui-bg_glass_85_dfeffc_1x400.png HTTP/1.1" 304 178 "http://54.68.201.26/jquery/themes/base/jquery.ui.theme.css" "Mozilla/5.0 (X11; Ubuntu; Linux x86_64; rv:30.0) Gecko/20100101 Firefox/30.0"
200.109.184.248 - - [25/Sep/2014:15:31:56 +0000] "GET /jquery/themes/base/images/ui-bg_inset-hard_100_fcfdfd_1x100.png HTTP/1.1" 304 178 "http://54.68.201.26/jquery/themes/base/jquery.ui.theme.css" "Mozilla/5.0 (X11; Ubuntu; Linux x86_64; rv:30.0) Gecko/20100101 Firefox/30.0"
200.109.184.248 - - [25/Sep/2014:15:31:56 +0000] "GET /jquery/themes/base/images/ui-icons_f9bd01_256x240.png HTTP/1.1" 304 180 "http://54.68.201.26/jquery/themes/base/jquery.ui.theme.css" "Mozilla/5.0 (X11; Ubuntu; Linux x86_64; rv:30.0) Gecko/20100101 Firefox/30.0"
200.109.184.248 - - [25/Sep/2014:15:31:56 +0000] "GET /jquery/themes/base/images/ui-icons_6da8d5_256x240.png HTTP/1.1" 304 180 "http://54.68.201.26/jquery/themes/base/jquery.ui.theme.css" "Mozilla/5.0 (X11; Ubuntu; Linux x86_64; rv:30.0) Gecko/20100101 Firefox/30.0"
200.109.184.248 - - [25/Sep/2014:15:31:56 +0000] "GET /jquery/themes/base/images/ui-bg_inset-hard_100_f5f8f9_1x100.png HTTP/1.1" 304 178 "http://54.68.201.26/jquery/themes/base/jquery.ui.theme.css" "Mozilla/5.0 (X11; Ubuntu; Linux x86_64; rv:30.0) Gecko/20100101 Firefox/30.0"
200.109.184.248 - - [25/Sep/2014:15:32:01 +0000] "GET /jquery/themes/base/images/ui-icons_217bc0_256x240.png HTTP/1.1" 304 181 "http://54.68.201.26/jquery/themes/base/jquery.ui.theme.css" "Mozilla/5.0 (X11; Ubuntu; Linux x86_64; rv:30.0) Gecko/20100101 Firefox/30.0"
200.109.184.248 - - [25/Sep/2014:15:32:01 +0000] "GET /jquery/themes/base/images/ui-bg_glass_75_d0e5f5_1x400.png HTTP/1.1" 304 179 "http://54.68.201.26/jquery/themes/base/jquery.ui.theme.css" "Mozilla/5.0 (X11; Ubuntu; Linux x86_64; rv:30.0) Gecko/20100101 Firefox/30.0"
200.109.184.248 - - [25/Sep/2014:15:32:03 +0000] "GET /login/logout HTTP/1.1" 302 837 "http://54.68.201.26/admin" "Mozilla/5.0 (X11; Ubuntu; Linux x86_64; rv:30.0) Gecko/20100101 Firefox/30.0"
200.109.184.248 - - [25/Sep/2014:15:32:04 +0000] "GET / HTTP/1.1" 200 2862 "http://54.68.201.26/admin" "Mozilla/5.0 (X11; Ubuntu; Linux x86_64; rv:30.0) Gecko/20100101 Firefox/30.0"
200.109.184.248 - - [25/Sep/2014:15:32:04 +0000] "GET /jquery/ui/jquery.ui.dialog.js HTTP/1.1" 200 6298 "http://54.68.201.26/" "Mozilla/5.0 (X11; Ubuntu; Linux x86_64; rv:30.0) Gecko/20100101 Firefox/30.0"
200.109.184.248 - - [25/Sep/2014:15:32:04 +0000] "GET /img/login_sibe.jpg HTTP/1.1" 304 180 "http://54.68.201.26/css/estilos.css" "Mozilla/5.0 (X11; Ubuntu; Linux x86_64; rv:30.0) Gecko/20100101 Firefox/30.0"
::1 - - [25/Sep/2014:15:32:09 +0000] "OPTIONS * HTTP/1.0" 200 125 "-" "Apache/2.4.7 (Ubuntu) PHP/5.5.9-1ubuntu4.4 (internal dummy connection)"
